[gd_scene load_steps=3 format=2]

[ext_resource path="res://HighScore.ogg" type="AudioStream" id=1]
[ext_resource path="res://SoundHighScore.gd" type="Script" id=2]

[node name="SoundHighScore" type="AudioStreamPlayer"]
stream = ExtResource( 1 )
script = ExtResource( 2 )
