[gd_scene load_steps=3 format=2]

[ext_resource path="res://snaph01.ogg" type="AudioStream" id=1]
[ext_resource path="res://SoundButton.gd" type="Script" id=2]

[node name="SoundButton" type="AudioStreamPlayer"]
stream = ExtResource( 1 )
script = ExtResource( 2 )
