[gd_scene load_steps=3 format=2]

[ext_resource path="res://Tongue.svg" type="Texture" id=1]

[sub_resource type="Animation" id=1]
resource_name = "FlickTongue"
length = 0.25
tracks/0/type = "value"
tracks/0/path = NodePath(".:visible")
tracks/0/interp = 1
tracks/0/loop_wrap = true
tracks/0/imported = false
tracks/0/enabled = true
tracks/0/keys = {
"times": PoolRealArray( 0, 0.25 ),
"transitions": PoolRealArray( 1, 1 ),
"update": 1,
"values": [ true, false ]
}

[node name="Tongue" type="Sprite"]
visible = false
position = Vector2( 0, -144 )
z_index = -1
texture = ExtResource( 1 )

[node name="AnimationPlayer" type="AnimationPlayer" parent="."]
anims/FlickTongue = SubResource( 1 )
